%YAML 1.1
%TAG !u! tag:unity3d.com,2011:
--- !u!1001 &5213462455029377062
PrefabInstance:
  m_ObjectHideFlags: 0
  serializedVersion: 2
  m_Modification:
    m_TransformParent: {fileID: 0}
    m_Modifications:
    - target: {fileID: 4416431286532416231, guid: b12dd8b71e4727349b6f4783095645cf,
        type: 3}
      propertyPath: m_Name
      value: suitcase
      objectReference: {fileID: 0}
    - target: {fileID: 4416431286532416230, guid: b12dd8b71e4727349b6f4783095645cf,
        type: 3}
      propertyPath: m_LocalPosition.x
      value: 0
      objectReference: {fileID: 0}
    - target: {fileID: 4416431286532416230, guid: b12dd8b71e4727349b6f4783095645cf,
        type: 3}
      propertyPath: m_LocalPosition.y
      value: 0
      objectReference: {fileID: 0}
    - target: {fileID: 4416431286532416230, guid: b12dd8b71e4727349b6f4783095645cf,
        type: 3}
      propertyPath: m_LocalPosition.z
      value: 0
      objectReference: {fileID: 0}
    - target: {fileID: 4416431286532416230, guid: b12dd8b71e4727349b6f4783095645cf,
        type: 3}
      propertyPath: m_LocalRotation.x
      value: 0
      objectReference: {fileID: 0}
    - target: {fileID: 4416431286532416230, guid: b12dd8b71e4727349b6f4783095645cf,
        type: 3}
      propertyPath: m_LocalRotation.y
      value: 0
      objectReference: {fileID: 0}
    - target: {fileID: 4416431286532416230, guid: b12dd8b71e4727349b6f4783095645cf,
        type: 3}
      propertyPath: m_LocalRotation.z
      value: 0
      objectReference: {fileID: 0}
    - target: {fileID: 4416431286532416230, guid: b12dd8b71e4727349b6f4783095645cf,
        type: 3}
      propertyPath: m_LocalRotation.w
      value: 1
      objectReference: {fileID: 0}
    - target: {fileID: 4416431286532416230, guid: b12dd8b71e4727349b6f4783095645cf,
        type: 3}
      propertyPath: m_RootOrder
      value: 0
      objectReference: {fileID: 0}
    - target: {fileID: 4416431286532416230, guid: b12dd8b71e4727349b6f4783095645cf,
        type: 3}
      propertyPath: m_LocalEulerAnglesHint.x
      value: 0
      objectReference: {fileID: 0}
    - target: {fileID: 4416431286532416230, guid: b12dd8b71e4727349b6f4783095645cf,
        type: 3}
      propertyPath: m_LocalEulerAnglesHint.y
      value: 0
      objectReference: {fileID: 0}
    - target: {fileID: 4416431286532416230, guid: b12dd8b71e4727349b6f4783095645cf,
        type: 3}
      propertyPath: m_LocalEulerAnglesHint.z
      value: 0
      objectReference: {fileID: 0}
    - target: {fileID: 7584059761477493912, guid: b12dd8b71e4727349b6f4783095645cf,
        type: 3}
      propertyPath: m_Sprite
      value: 
      objectReference: {fileID: 21300000, guid: 7bf75236f022e4142b624b625792b722,
        type: 3}
    - target: {fileID: 1421037165101378865, guid: b12dd8b71e4727349b6f4783095645cf,
        type: 3}
      propertyPath: m_Sprite
      value: 
      objectReference: {fileID: 21300000, guid: 7bf75236f022e4142b624b625792b722,
        type: 3}
    m_RemovedComponents: []
  m_SourcePrefab: {fileID: 100100000, guid: b12dd8b71e4727349b6f4783095645cf, type: 3}
