{
    "m_SerializedProperties": [
        {
            "typeInfo": {
                "fullName": "UnityEditor.ShaderGraph.Vector1ShaderProperty"
            },
            "JSONnodeData": "{\n    \"m_Name\": \"DiffuseTransition\",\n    \"m_GeneratePropertyBlock\": true,\n    \"m_Guid\": {\n        \"m_GuidSerialized\": \"2b4d0c1c-de52-4ee5-a7f1-560c5ce66115\"\n    },\n    \"m_DefaultReferenceName\": \"Vector1_55CEB72\",\n    \"m_OverrideReferenceName\": \"\",\n    \"m_Precision\": 0,\n    \"m_Value\": 1.0,\n    \"m_FloatType\": 0,\n    \"m_RangeValues\": {\n        \"x\": 0.0,\n        \"y\": 1.0\n    },\n    \"m_Hidden\": false\n}"
        },
        {
            "typeInfo": {
                "fullName": "UnityEditor.ShaderGraph.TextureShaderProperty"
            },
            "JSONnodeData": "{\n    \"m_Name\": \"MainTexture\",\n    \"m_GeneratePropertyBlock\": true,\n    \"m_Guid\": {\n        \"m_GuidSerialized\": \"22d44ca7-e555-4d2b-b2c2-c6bb70aa67be\"\n    },\n    \"m_DefaultReferenceName\": \"Texture2D_55F52323\",\n    \"m_OverrideReferenceName\": \"\",\n    \"m_Precision\": 0,\n    \"m_Value\": {\n        \"m_SerializedTexture\": \"{\\\"texture\\\":{\\\"fileID\\\":2800000,\\\"guid\\\":\\\"cd1e0b59e9582d7468490561bceaa01b\\\",\\\"type\\\":3}}\",\n        \"m_Guid\": \"\"\n    },\n    \"m_Modifiable\": true,\n    \"m_DefaultType\": 0\n}"
        }
    ],
    "m_SerializableNodes": [
        {
            "typeInfo": {
                "fullName": "UnityEditor.ShaderGraph.RemapNode"
            },
            "JSONnodeData": "{\n    \"m_GuidSerialized\": \"593de488-7b2d-4101-8855-ce45dd161ad0\",\n    \"m_GroupGuidSerialized\": \"00000000-0000-0000-0000-000000000000\",\n    \"m_Name\": \"Remap\",\n    \"m_DrawState\": {\n        \"m_Expanded\": true,\n        \"m_Position\": {\n            \"serializedVersion\": \"2\",\n            \"x\": -954.9998779296875,\n            \"y\": 340.0,\n            \"width\": 208.0,\n            \"height\": 326.0\n        }\n    },\n    \"m_SerializableSlots\": [\n        {\n            \"typeInfo\": {\n                \"fullName\": \"UnityEditor.ShaderGraph.DynamicVectorMaterialSlot\"\n            },\n            \"JSONnodeData\": \"{\\n    \\\"m_Id\\\": 0,\\n    \\\"m_DisplayName\\\": \\\"In\\\",\\n    \\\"m_SlotType\\\": 0,\\n    \\\"m_Priority\\\": 2147483647,\\n    \\\"m_Hidden\\\": false,\\n    \\\"m_ShaderOutputName\\\": \\\"In\\\",\\n    \\\"m_StageCapability\\\": 3,\\n    \\\"m_Value\\\": {\\n        \\\"x\\\": -1.0,\\n        \\\"y\\\": -1.0,\\n        \\\"z\\\": -1.0,\\n        \\\"w\\\": -1.0\\n    },\\n    \\\"m_DefaultValue\\\": {\\n        \\\"x\\\": 0.0,\\n        \\\"y\\\": 0.0,\\n        \\\"z\\\": 0.0,\\n        \\\"w\\\": 0.0\\n    }\\n}\"\n        },\n        {\n            \"typeInfo\": {\n                \"fullName\": \"UnityEditor.ShaderGraph.Vector2MaterialSlot\"\n            },\n            \"JSONnodeData\": \"{\\n    \\\"m_Id\\\": 1,\\n    \\\"m_DisplayName\\\": \\\"In Min Max\\\",\\n    \\\"m_SlotType\\\": 0,\\n    \\\"m_Priority\\\": 2147483647,\\n    \\\"m_Hidden\\\": false,\\n    \\\"m_ShaderOutputName\\\": \\\"InMinMax\\\",\\n    \\\"m_StageCapability\\\": 3,\\n    \\\"m_Value\\\": {\\n        \\\"x\\\": 0.0,\\n        \\\"y\\\": 1.0\\n    },\\n    \\\"m_DefaultValue\\\": {\\n        \\\"x\\\": 0.0,\\n        \\\"y\\\": 0.0\\n    },\\n    \\\"m_Labels\\\": [\\n        \\\"X\\\",\\n        \\\"Y\\\"\\n    ]\\n}\"\n        },\n        {\n            \"typeInfo\": {\n                \"fullName\": \"UnityEditor.ShaderGraph.Vector2MaterialSlot\"\n            },\n            \"JSONnodeData\": \"{\\n    \\\"m_Id\\\": 2,\\n    \\\"m_DisplayName\\\": \\\"Out Min Max\\\",\\n    \\\"m_SlotType\\\": 0,\\n    \\\"m_Priority\\\": 2147483647,\\n    \\\"m_Hidden\\\": false,\\n    \\\"m_ShaderOutputName\\\": \\\"OutMinMax\\\",\\n    \\\"m_StageCapability\\\": 3,\\n    \\\"m_Value\\\": {\\n        \\\"x\\\": -5.0,\\n        \\\"y\\\": 5.0\\n    },\\n    \\\"m_DefaultValue\\\": {\\n        \\\"x\\\": 0.0,\\n        \\\"y\\\": 0.0\\n    },\\n    \\\"m_Labels\\\": [\\n        \\\"X\\\",\\n        \\\"Y\\\"\\n    ]\\n}\"\n        },\n        {\n            \"typeInfo\": {\n                \"fullName\": \"UnityEditor.ShaderGraph.DynamicVectorMaterialSlot\"\n            },\n            \"JSONnodeData\": \"{\\n    \\\"m_Id\\\": 3,\\n    \\\"m_DisplayName\\\": \\\"Out\\\",\\n    \\\"m_SlotType\\\": 1,\\n    \\\"m_Priority\\\": 2147483647,\\n    \\\"m_Hidden\\\": false,\\n    \\\"m_ShaderOutputName\\\": \\\"Out\\\",\\n    \\\"m_StageCapability\\\": 3,\\n    \\\"m_Value\\\": {\\n        \\\"x\\\": 0.0,\\n        \\\"y\\\": 0.0,\\n        \\\"z\\\": 0.0,\\n        \\\"w\\\": 0.0\\n    },\\n    \\\"m_DefaultValue\\\": {\\n        \\\"x\\\": 0.0,\\n        \\\"y\\\": 0.0,\\n        \\\"z\\\": 0.0,\\n        \\\"w\\\": 0.0\\n    }\\n}\"\n        }\n    ],\n    \"m_Precision\": 0,\n    \"m_PreviewExpanded\": true,\n    \"m_CustomColors\": {\n        \"m_SerializableColors\": []\n    }\n}"
        },
        {
            "typeInfo": {
                "fullName": "UnityEditor.ShaderGraph.SampleTexture2DNode"
            },
            "JSONnodeData": "{\n    \"m_GuidSerialized\": \"f4d581c3-3ff7-4f9f-a782-2d9a71bcf228\",\n    \"m_GroupGuidSerialized\": \"00000000-0000-0000-0000-000000000000\",\n    \"m_Name\": \"Sample Texture 2D\",\n    \"m_DrawState\": {\n        \"m_Expanded\": true,\n        \"m_Position\": {\n            \"serializedVersion\": \"2\",\n            \"x\": -1102.0,\n            \"y\": -205.99998474121095,\n            \"width\": 208.0,\n            \"height\": 436.9999694824219\n        }\n    },\n    \"m_SerializableSlots\": [\n        {\n            \"typeInfo\": {\n                \"fullName\": \"UnityEditor.ShaderGraph.Vector4MaterialSlot\"\n            },\n            \"JSONnodeData\": \"{\\n    \\\"m_Id\\\": 0,\\n    \\\"m_DisplayName\\\": \\\"RGBA\\\",\\n    \\\"m_SlotType\\\": 1,\\n    \\\"m_Priority\\\": 2147483647,\\n    \\\"m_Hidden\\\": false,\\n    \\\"m_ShaderOutputName\\\": \\\"RGBA\\\",\\n    \\\"m_StageCapability\\\": 2,\\n    \\\"m_Value\\\": {\\n        \\\"x\\\": 0.0,\\n        \\\"y\\\": 0.0,\\n        \\\"z\\\": 0.0,\\n        \\\"w\\\": 0.0\\n    },\\n    \\\"m_DefaultValue\\\": {\\n        \\\"x\\\": 0.0,\\n        \\\"y\\\": 0.0,\\n        \\\"z\\\": 0.0,\\n        \\\"w\\\": 0.0\\n    }\\n}\"\n        },\n        {\n            \"typeInfo\": {\n                \"fullName\": \"UnityEditor.ShaderGraph.Vector1MaterialSlot\"\n            },\n            \"JSONnodeData\": \"{\\n    \\\"m_Id\\\": 4,\\n    \\\"m_DisplayName\\\": \\\"R\\\",\\n    \\\"m_SlotType\\\": 1,\\n    \\\"m_Priority\\\": 2147483647,\\n    \\\"m_Hidden\\\": false,\\n    \\\"m_ShaderOutputName\\\": \\\"R\\\",\\n    \\\"m_StageCapability\\\": 2,\\n    \\\"m_Value\\\": 0.0,\\n    \\\"m_DefaultValue\\\": 0.0,\\n    \\\"m_Labels\\\": [\\n        \\\"X\\\"\\n    ]\\n}\"\n        },\n        {\n            \"typeInfo\": {\n                \"fullName\": \"UnityEditor.ShaderGraph.Vector1MaterialSlot\"\n            },\n            \"JSONnodeData\": \"{\\n    \\\"m_Id\\\": 5,\\n    \\\"m_DisplayName\\\": \\\"G\\\",\\n    \\\"m_SlotType\\\": 1,\\n    \\\"m_Priority\\\": 2147483647,\\n    \\\"m_Hidden\\\": false,\\n    \\\"m_ShaderOutputName\\\": \\\"G\\\",\\n    \\\"m_StageCapability\\\": 2,\\n    \\\"m_Value\\\": 0.0,\\n    \\\"m_DefaultValue\\\": 0.0,\\n    \\\"m_Labels\\\": [\\n        \\\"X\\\"\\n    ]\\n}\"\n        },\n        {\n            \"typeInfo\": {\n                \"fullName\": \"UnityEditor.ShaderGraph.Vector1MaterialSlot\"\n            },\n            \"JSONnodeData\": \"{\\n    \\\"m_Id\\\": 6,\\n    \\\"m_DisplayName\\\": \\\"B\\\",\\n    \\\"m_SlotType\\\": 1,\\n    \\\"m_Priority\\\": 2147483647,\\n    \\\"m_Hidden\\\": false,\\n    \\\"m_ShaderOutputName\\\": \\\"B\\\",\\n    \\\"m_StageCapability\\\": 2,\\n    \\\"m_Value\\\": 0.0,\\n    \\\"m_DefaultValue\\\": 0.0,\\n    \\\"m_Labels\\\": [\\n        \\\"X\\\"\\n    ]\\n}\"\n        },\n        {\n            \"typeInfo\": {\n                \"fullName\": \"UnityEditor.ShaderGraph.Vector1MaterialSlot\"\n            },\n            \"JSONnodeData\": \"{\\n    \\\"m_Id\\\": 7,\\n    \\\"m_DisplayName\\\": \\\"A\\\",\\n    \\\"m_SlotType\\\": 1,\\n    \\\"m_Priority\\\": 2147483647,\\n    \\\"m_Hidden\\\": false,\\n    \\\"m_ShaderOutputName\\\": \\\"A\\\",\\n    \\\"m_StageCapability\\\": 2,\\n    \\\"m_Value\\\": 0.0,\\n    \\\"m_DefaultValue\\\": 0.0,\\n    \\\"m_Labels\\\": [\\n        \\\"X\\\"\\n    ]\\n}\"\n        },\n        {\n            \"typeInfo\": {\n                \"fullName\": \"UnityEditor.ShaderGraph.Texture2DInputMaterialSlot\"\n            },\n            \"JSONnodeData\": \"{\\n    \\\"m_Id\\\": 1,\\n    \\\"m_DisplayName\\\": \\\"Texture\\\",\\n    \\\"m_SlotType\\\": 0,\\n    \\\"m_Priority\\\": 2147483647,\\n    \\\"m_Hidden\\\": false,\\n    \\\"m_ShaderOutputName\\\": \\\"Texture\\\",\\n    \\\"m_StageCapability\\\": 3,\\n    \\\"m_Texture\\\": {\\n        \\\"m_SerializedTexture\\\": \\\"{\\\\\\\"texture\\\\\\\":{\\\\\\\"fileID\\\\\\\":2800000,\\\\\\\"guid\\\\\\\":\\\\\\\"31da8d3f831484247bdc0df183264cfb\\\\\\\",\\\\\\\"type\\\\\\\":3}}\\\",\\n        \\\"m_Guid\\\": \\\"\\\"\\n    },\\n    \\\"m_DefaultType\\\": 0\\n}\"\n        },\n        {\n            \"typeInfo\": {\n                \"fullName\": \"UnityEditor.ShaderGraph.UVMaterialSlot\"\n            },\n            \"JSONnodeData\": \"{\\n    \\\"m_Id\\\": 2,\\n    \\\"m_DisplayName\\\": \\\"UV\\\",\\n    \\\"m_SlotType\\\": 0,\\n    \\\"m_Priority\\\": 2147483647,\\n    \\\"m_Hidden\\\": false,\\n    \\\"m_ShaderOutputName\\\": \\\"UV\\\",\\n    \\\"m_StageCapability\\\": 3,\\n    \\\"m_Value\\\": {\\n        \\\"x\\\": 0.0,\\n        \\\"y\\\": 0.0\\n    },\\n    \\\"m_DefaultValue\\\": {\\n        \\\"x\\\": 0.0,\\n        \\\"y\\\": 0.0\\n    },\\n    \\\"m_Labels\\\": [\\n        \\\"X\\\",\\n        \\\"Y\\\"\\n    ],\\n    \\\"m_Channel\\\": 0\\n}\"\n        },\n        {\n            \"typeInfo\": {\n                \"fullName\": \"UnityEditor.ShaderGraph.SamplerStateMaterialSlot\"\n            },\n            \"JSONnodeData\": \"{\\n    \\\"m_Id\\\": 3,\\n    \\\"m_DisplayName\\\": \\\"Sampler\\\",\\n    \\\"m_SlotType\\\": 0,\\n    \\\"m_Priority\\\": 2147483647,\\n    \\\"m_Hidden\\\": false,\\n    \\\"m_ShaderOutputName\\\": \\\"Sampler\\\",\\n    \\\"m_StageCapability\\\": 3\\n}\"\n        }\n    ],\n    \"m_Precision\": 0,\n    \"m_PreviewExpanded\": true,\n    \"m_CustomColors\": {\n        \"m_SerializableColors\": []\n    },\n    \"m_TextureType\": 0,\n    \"m_NormalMapSpace\": 0\n}"
        },
        {
            "typeInfo": {
                "fullName": "UnityEditor.ShaderGraph.SampleTexture2DNode"
            },
            "JSONnodeData": "{\n    \"m_GuidSerialized\": \"009655dc-fe8d-4941-bd43-bb2c71a76b81\",\n    \"m_GroupGuidSerialized\": \"00000000-0000-0000-0000-000000000000\",\n    \"m_Name\": \"Sample Texture 2D\",\n    \"m_DrawState\": {\n        \"m_Expanded\": true,\n        \"m_Position\": {\n            \"serializedVersion\": \"2\",\n            \"x\": -1108.9998779296875,\n            \"y\": -688.9999389648438,\n            \"width\": 207.99998474121095,\n            \"height\": 438.9999694824219\n        }\n    },\n    \"m_SerializableSlots\": [\n        {\n            \"typeInfo\": {\n                \"fullName\": \"UnityEditor.ShaderGraph.Vector4MaterialSlot\"\n            },\n            \"JSONnodeData\": \"{\\n    \\\"m_Id\\\": 0,\\n    \\\"m_DisplayName\\\": \\\"RGBA\\\",\\n    \\\"m_SlotType\\\": 1,\\n    \\\"m_Priority\\\": 2147483647,\\n    \\\"m_Hidden\\\": false,\\n    \\\"m_ShaderOutputName\\\": \\\"RGBA\\\",\\n    \\\"m_StageCapability\\\": 2,\\n    \\\"m_Value\\\": {\\n        \\\"x\\\": 0.0,\\n        \\\"y\\\": 0.0,\\n        \\\"z\\\": 0.0,\\n        \\\"w\\\": 0.0\\n    },\\n    \\\"m_DefaultValue\\\": {\\n        \\\"x\\\": 0.0,\\n        \\\"y\\\": 0.0,\\n        \\\"z\\\": 0.0,\\n        \\\"w\\\": 0.0\\n    }\\n}\"\n        },\n        {\n            \"typeInfo\": {\n                \"fullName\": \"UnityEditor.ShaderGraph.Vector1MaterialSlot\"\n            },\n            \"JSONnodeData\": \"{\\n    \\\"m_Id\\\": 4,\\n    \\\"m_DisplayName\\\": \\\"R\\\",\\n    \\\"m_SlotType\\\": 1,\\n    \\\"m_Priority\\\": 2147483647,\\n    \\\"m_Hidden\\\": false,\\n    \\\"m_ShaderOutputName\\\": \\\"R\\\",\\n    \\\"m_StageCapability\\\": 2,\\n    \\\"m_Value\\\": 0.0,\\n    \\\"m_DefaultValue\\\": 0.0,\\n    \\\"m_Labels\\\": [\\n        \\\"X\\\"\\n    ]\\n}\"\n        },\n        {\n            \"typeInfo\": {\n                \"fullName\": \"UnityEditor.ShaderGraph.Vector1MaterialSlot\"\n            },\n            \"JSONnodeData\": \"{\\n    \\\"m_Id\\\": 5,\\n    \\\"m_DisplayName\\\": \\\"G\\\",\\n    \\\"m_SlotType\\\": 1,\\n    \\\"m_Priority\\\": 2147483647,\\n    \\\"m_Hidden\\\": false,\\n    \\\"m_ShaderOutputName\\\": \\\"G\\\",\\n    \\\"m_StageCapability\\\": 2,\\n    \\\"m_Value\\\": 0.0,\\n    \\\"m_DefaultValue\\\": 0.0,\\n    \\\"m_Labels\\\": [\\n        \\\"X\\\"\\n    ]\\n}\"\n        },\n        {\n            \"typeInfo\": {\n                \"fullName\": \"UnityEditor.ShaderGraph.Vector1MaterialSlot\"\n            },\n            \"JSONnodeData\": \"{\\n    \\\"m_Id\\\": 6,\\n    \\\"m_DisplayName\\\": \\\"B\\\",\\n    \\\"m_SlotType\\\": 1,\\n    \\\"m_Priority\\\": 2147483647,\\n    \\\"m_Hidden\\\": false,\\n    \\\"m_ShaderOutputName\\\": \\\"B\\\",\\n    \\\"m_StageCapability\\\": 2,\\n    \\\"m_Value\\\": 0.0,\\n    \\\"m_DefaultValue\\\": 0.0,\\n    \\\"m_Labels\\\": [\\n        \\\"X\\\"\\n    ]\\n}\"\n        },\n        {\n            \"typeInfo\": {\n                \"fullName\": \"UnityEditor.ShaderGraph.Vector1MaterialSlot\"\n            },\n            \"JSONnodeData\": \"{\\n    \\\"m_Id\\\": 7,\\n    \\\"m_DisplayName\\\": \\\"A\\\",\\n    \\\"m_SlotType\\\": 1,\\n    \\\"m_Priority\\\": 2147483647,\\n    \\\"m_Hidden\\\": false,\\n    \\\"m_ShaderOutputName\\\": \\\"A\\\",\\n    \\\"m_StageCapability\\\": 2,\\n    \\\"m_Value\\\": 0.0,\\n    \\\"m_DefaultValue\\\": 0.0,\\n    \\\"m_Labels\\\": [\\n        \\\"X\\\"\\n    ]\\n}\"\n        },\n        {\n            \"typeInfo\": {\n                \"fullName\": \"UnityEditor.ShaderGraph.Texture2DInputMaterialSlot\"\n            },\n            \"JSONnodeData\": \"{\\n    \\\"m_Id\\\": 1,\\n    \\\"m_DisplayName\\\": \\\"Texture\\\",\\n    \\\"m_SlotType\\\": 0,\\n    \\\"m_Priority\\\": 2147483647,\\n    \\\"m_Hidden\\\": false,\\n    \\\"m_ShaderOutputName\\\": \\\"Texture\\\",\\n    \\\"m_StageCapability\\\": 3,\\n    \\\"m_Texture\\\": {\\n        \\\"m_SerializedTexture\\\": \\\"{\\\\\\\"texture\\\\\\\":{\\\\\\\"instanceID\\\\\\\":0}}\\\",\\n        \\\"m_Guid\\\": \\\"\\\"\\n    },\\n    \\\"m_DefaultType\\\": 0\\n}\"\n        },\n        {\n            \"typeInfo\": {\n                \"fullName\": \"UnityEditor.ShaderGraph.UVMaterialSlot\"\n            },\n            \"JSONnodeData\": \"{\\n    \\\"m_Id\\\": 2,\\n    \\\"m_DisplayName\\\": \\\"UV\\\",\\n    \\\"m_SlotType\\\": 0,\\n    \\\"m_Priority\\\": 2147483647,\\n    \\\"m_Hidden\\\": false,\\n    \\\"m_ShaderOutputName\\\": \\\"UV\\\",\\n    \\\"m_StageCapability\\\": 3,\\n    \\\"m_Value\\\": {\\n        \\\"x\\\": 0.0,\\n        \\\"y\\\": 0.0\\n    },\\n    \\\"m_DefaultValue\\\": {\\n        \\\"x\\\": 0.0,\\n        \\\"y\\\": 0.0\\n    },\\n    \\\"m_Labels\\\": [\\n        \\\"X\\\",\\n        \\\"Y\\\"\\n    ],\\n    \\\"m_Channel\\\": 2\\n}\"\n        },\n        {\n            \"typeInfo\": {\n                \"fullName\": \"UnityEditor.ShaderGraph.SamplerStateMaterialSlot\"\n            },\n            \"JSONnodeData\": \"{\\n    \\\"m_Id\\\": 3,\\n    \\\"m_DisplayName\\\": \\\"Sampler\\\",\\n    \\\"m_SlotType\\\": 0,\\n    \\\"m_Priority\\\": 2147483647,\\n    \\\"m_Hidden\\\": false,\\n    \\\"m_ShaderOutputName\\\": \\\"Sampler\\\",\\n    \\\"m_StageCapability\\\": 3\\n}\"\n        }\n    ],\n    \"m_Precision\": 0,\n    \"m_PreviewExpanded\": true,\n    \"m_CustomColors\": {\n        \"m_SerializableColors\": []\n    },\n    \"m_TextureType\": 0,\n    \"m_NormalMapSpace\": 0\n}"
        },
        {
            "typeInfo": {
                "fullName": "UnityEditor.ShaderGraph.NoiseNode"
            },
            "JSONnodeData": "{\n    \"m_GuidSerialized\": \"6d77b0ba-3d60-41e4-8357-57a93a44059d\",\n    \"m_GroupGuidSerialized\": \"00000000-0000-0000-0000-000000000000\",\n    \"m_Name\": \"Simple Noise\",\n    \"m_DrawState\": {\n        \"m_Expanded\": true,\n        \"m_Position\": {\n            \"serializedVersion\": \"2\",\n            \"x\": -1282.9998779296875,\n            \"y\": 327.0,\n            \"width\": 208.0,\n            \"height\": 301.9999694824219\n        }\n    },\n    \"m_SerializableSlots\": [\n        {\n            \"typeInfo\": {\n                \"fullName\": \"UnityEditor.ShaderGraph.UVMaterialSlot\"\n            },\n            \"JSONnodeData\": \"{\\n    \\\"m_Id\\\": 0,\\n    \\\"m_DisplayName\\\": \\\"UV\\\",\\n    \\\"m_SlotType\\\": 0,\\n    \\\"m_Priority\\\": 2147483647,\\n    \\\"m_Hidden\\\": false,\\n    \\\"m_ShaderOutputName\\\": \\\"UV\\\",\\n    \\\"m_StageCapability\\\": 3,\\n    \\\"m_Value\\\": {\\n        \\\"x\\\": 0.0,\\n        \\\"y\\\": 0.0\\n    },\\n    \\\"m_DefaultValue\\\": {\\n        \\\"x\\\": 0.0,\\n        \\\"y\\\": 0.0\\n    },\\n    \\\"m_Labels\\\": [\\n        \\\"X\\\",\\n        \\\"Y\\\"\\n    ],\\n    \\\"m_Channel\\\": 0\\n}\"\n        },\n        {\n            \"typeInfo\": {\n                \"fullName\": \"UnityEditor.ShaderGraph.Vector1MaterialSlot\"\n            },\n            \"JSONnodeData\": \"{\\n    \\\"m_Id\\\": 1,\\n    \\\"m_DisplayName\\\": \\\"Scale\\\",\\n    \\\"m_SlotType\\\": 0,\\n    \\\"m_Priority\\\": 2147483647,\\n    \\\"m_Hidden\\\": false,\\n    \\\"m_ShaderOutputName\\\": \\\"Scale\\\",\\n    \\\"m_StageCapability\\\": 3,\\n    \\\"m_Value\\\": 30.0,\\n    \\\"m_DefaultValue\\\": 500.0,\\n    \\\"m_Labels\\\": [\\n        \\\"X\\\"\\n    ]\\n}\"\n        },\n        {\n            \"typeInfo\": {\n                \"fullName\": \"UnityEditor.ShaderGraph.Vector1MaterialSlot\"\n            },\n            \"JSONnodeData\": \"{\\n    \\\"m_Id\\\": 2,\\n    \\\"m_DisplayName\\\": \\\"Out\\\",\\n    \\\"m_SlotType\\\": 1,\\n    \\\"m_Priority\\\": 2147483647,\\n    \\\"m_Hidden\\\": false,\\n    \\\"m_ShaderOutputName\\\": \\\"Out\\\",\\n    \\\"m_StageCapability\\\": 3,\\n    \\\"m_Value\\\": 0.0,\\n    \\\"m_DefaultValue\\\": 0.0,\\n    \\\"m_Labels\\\": [\\n        \\\"X\\\"\\n    ]\\n}\"\n        }\n    ],\n    \"m_Precision\": 0,\n    \"m_PreviewExpanded\": true,\n    \"m_CustomColors\": {\n        \"m_SerializableColors\": []\n    }\n}"
        },
        {
            "typeInfo": {
                "fullName": "UnityEditor.ShaderGraph.PBRMasterNode"
            },
            "JSONnodeData": "{\n    \"m_GuidSerialized\": \"3c764673-d288-449c-8f0c-84c7f99edfd8\",\n    \"m_GroupGuidSerialized\": \"00000000-0000-0000-0000-000000000000\",\n    \"m_Name\": \"PBR Master\",\n    \"m_DrawState\": {\n        \"m_Expanded\": true,\n        \"m_Position\": {\n            \"serializedVersion\": \"2\",\n            \"x\": 0.0,\n            \"y\": 0.0,\n            \"width\": 0.0,\n            \"height\": 0.0\n        }\n    },\n    \"m_SerializableSlots\": [\n        {\n            \"typeInfo\": {\n                \"fullName\": \"UnityEditor.ShaderGraph.PositionMaterialSlot\"\n            },\n            \"JSONnodeData\": \"{\\n    \\\"m_Id\\\": 9,\\n    \\\"m_DisplayName\\\": \\\"Position\\\",\\n    \\\"m_SlotType\\\": 0,\\n    \\\"m_Priority\\\": 2147483647,\\n    \\\"m_Hidden\\\": false,\\n    \\\"m_ShaderOutputName\\\": \\\"Position\\\",\\n    \\\"m_StageCapability\\\": 1,\\n    \\\"m_Value\\\": {\\n        \\\"x\\\": 0.0,\\n        \\\"y\\\": 0.0,\\n        \\\"z\\\": 0.0\\n    },\\n    \\\"m_DefaultValue\\\": {\\n        \\\"x\\\": 0.0,\\n        \\\"y\\\": 0.0,\\n        \\\"z\\\": 0.0\\n    },\\n    \\\"m_Labels\\\": [\\n        \\\"X\\\",\\n        \\\"Y\\\",\\n        \\\"Z\\\"\\n    ],\\n    \\\"m_Space\\\": 0\\n}\"\n        },\n        {\n            \"typeInfo\": {\n                \"fullName\": \"UnityEditor.ShaderGraph.ColorRGBMaterialSlot\"\n            },\n            \"JSONnodeData\": \"{\\n    \\\"m_Id\\\": 0,\\n    \\\"m_DisplayName\\\": \\\"Albedo\\\",\\n    \\\"m_SlotType\\\": 0,\\n    \\\"m_Priority\\\": 2147483647,\\n    \\\"m_Hidden\\\": false,\\n    \\\"m_ShaderOutputName\\\": \\\"Albedo\\\",\\n    \\\"m_StageCapability\\\": 2,\\n    \\\"m_Value\\\": {\\n        \\\"x\\\": 0.7353569269180298,\\n        \\\"y\\\": 0.7353569269180298,\\n        \\\"z\\\": 0.7353569269180298\\n    },\\n    \\\"m_DefaultValue\\\": {\\n        \\\"x\\\": 0.0,\\n        \\\"y\\\": 0.0,\\n        \\\"z\\\": 0.0\\n    },\\n    \\\"m_Labels\\\": [\\n        \\\"X\\\",\\n        \\\"Y\\\",\\n        \\\"Z\\\"\\n    ],\\n    \\\"m_ColorMode\\\": 0\\n}\"\n        },\n        {\n            \"typeInfo\": {\n                \"fullName\": \"UnityEditor.ShaderGraph.NormalMaterialSlot\"\n            },\n            \"JSONnodeData\": \"{\\n    \\\"m_Id\\\": 1,\\n    \\\"m_DisplayName\\\": \\\"Normal\\\",\\n    \\\"m_SlotType\\\": 0,\\n    \\\"m_Priority\\\": 2147483647,\\n    \\\"m_Hidden\\\": false,\\n    \\\"m_ShaderOutputName\\\": \\\"Normal\\\",\\n    \\\"m_StageCapability\\\": 2,\\n    \\\"m_Value\\\": {\\n        \\\"x\\\": 0.0,\\n        \\\"y\\\": 0.0,\\n        \\\"z\\\": 0.0\\n    },\\n    \\\"m_DefaultValue\\\": {\\n        \\\"x\\\": 0.0,\\n        \\\"y\\\": 0.0,\\n        \\\"z\\\": 0.0\\n    },\\n    \\\"m_Labels\\\": [\\n        \\\"X\\\",\\n        \\\"Y\\\",\\n        \\\"Z\\\"\\n    ],\\n    \\\"m_Space\\\": 3\\n}\"\n        },\n        {\n            \"typeInfo\": {\n                \"fullName\": \"UnityEditor.ShaderGraph.ColorRGBMaterialSlot\"\n            },\n            \"JSONnodeData\": \"{\\n    \\\"m_Id\\\": 4,\\n    \\\"m_DisplayName\\\": \\\"Emission\\\",\\n    \\\"m_SlotType\\\": 0,\\n    \\\"m_Priority\\\": 2147483647,\\n    \\\"m_Hidden\\\": false,\\n    \\\"m_ShaderOutputName\\\": \\\"Emission\\\",\\n    \\\"m_StageCapability\\\": 2,\\n    \\\"m_Value\\\": {\\n        \\\"x\\\": 0.0,\\n        \\\"y\\\": 0.0,\\n        \\\"z\\\": 0.0\\n    },\\n    \\\"m_DefaultValue\\\": {\\n        \\\"x\\\": 0.0,\\n        \\\"y\\\": 0.0,\\n        \\\"z\\\": 0.0\\n    },\\n    \\\"m_Labels\\\": [\\n        \\\"X\\\",\\n        \\\"Y\\\",\\n        \\\"Z\\\"\\n    ],\\n    \\\"m_ColorMode\\\": 0\\n}\"\n        },\n        {\n            \"typeInfo\": {\n                \"fullName\": \"UnityEditor.ShaderGraph.Vector1MaterialSlot\"\n            },\n            \"JSONnodeData\": \"{\\n    \\\"m_Id\\\": 2,\\n    \\\"m_DisplayName\\\": \\\"Metallic\\\",\\n    \\\"m_SlotType\\\": 0,\\n    \\\"m_Priority\\\": 2147483647,\\n    \\\"m_Hidden\\\": false,\\n    \\\"m_ShaderOutputName\\\": \\\"Metallic\\\",\\n    \\\"m_StageCapability\\\": 2,\\n    \\\"m_Value\\\": 0.0,\\n    \\\"m_DefaultValue\\\": 0.0,\\n    \\\"m_Labels\\\": [\\n        \\\"X\\\"\\n    ]\\n}\"\n        },\n        {\n            \"typeInfo\": {\n                \"fullName\": \"UnityEditor.ShaderGraph.Vector1MaterialSlot\"\n            },\n            \"JSONnodeData\": \"{\\n    \\\"m_Id\\\": 5,\\n    \\\"m_DisplayName\\\": \\\"Smoothness\\\",\\n    \\\"m_SlotType\\\": 0,\\n    \\\"m_Priority\\\": 2147483647,\\n    \\\"m_Hidden\\\": false,\\n    \\\"m_ShaderOutputName\\\": \\\"Smoothness\\\",\\n    \\\"m_StageCapability\\\": 2,\\n    \\\"m_Value\\\": 0.5,\\n    \\\"m_DefaultValue\\\": 0.5,\\n    \\\"m_Labels\\\": [\\n        \\\"X\\\"\\n    ]\\n}\"\n        },\n        {\n            \"typeInfo\": {\n                \"fullName\": \"UnityEditor.ShaderGraph.Vector1MaterialSlot\"\n            },\n            \"JSONnodeData\": \"{\\n    \\\"m_Id\\\": 6,\\n    \\\"m_DisplayName\\\": \\\"Occlusion\\\",\\n    \\\"m_SlotType\\\": 0,\\n    \\\"m_Priority\\\": 2147483647,\\n    \\\"m_Hidden\\\": false,\\n    \\\"m_ShaderOutputName\\\": \\\"Occlusion\\\",\\n    \\\"m_StageCapability\\\": 2,\\n    \\\"m_Value\\\": 1.0,\\n    \\\"m_DefaultValue\\\": 1.0,\\n    \\\"m_Labels\\\": [\\n        \\\"X\\\"\\n    ]\\n}\"\n        },\n        {\n            \"typeInfo\": {\n                \"fullName\": \"UnityEditor.ShaderGraph.Vector1MaterialSlot\"\n            },\n            \"JSONnodeData\": \"{\\n    \\\"m_Id\\\": 7,\\n    \\\"m_DisplayName\\\": \\\"Alpha\\\",\\n    \\\"m_SlotType\\\": 0,\\n    \\\"m_Priority\\\": 2147483647,\\n    \\\"m_Hidden\\\": false,\\n    \\\"m_ShaderOutputName\\\": \\\"Alpha\\\",\\n    \\\"m_StageCapability\\\": 2,\\n    \\\"m_Value\\\": 1.0,\\n    \\\"m_DefaultValue\\\": 1.0,\\n    \\\"m_Labels\\\": [\\n        \\\"X\\\"\\n    ]\\n}\"\n        },\n        {\n            \"typeInfo\": {\n                \"fullName\": \"UnityEditor.ShaderGraph.Vector1MaterialSlot\"\n            },\n            \"JSONnodeData\": \"{\\n    \\\"m_Id\\\": 8,\\n    \\\"m_DisplayName\\\": \\\"AlphaClipThreshold\\\",\\n    \\\"m_SlotType\\\": 0,\\n    \\\"m_Priority\\\": 2147483647,\\n    \\\"m_Hidden\\\": false,\\n    \\\"m_ShaderOutputName\\\": \\\"AlphaClipThreshold\\\",\\n    \\\"m_StageCapability\\\": 2,\\n    \\\"m_Value\\\": 0.5,\\n    \\\"m_DefaultValue\\\": 0.5,\\n    \\\"m_Labels\\\": [\\n        \\\"X\\\"\\n    ]\\n}\"\n        }\n    ],\n    \"m_Precision\": 0,\n    \"m_PreviewExpanded\": true,\n    \"m_CustomColors\": {\n        \"m_SerializableColors\": []\n    },\n    \"m_SerializableSubShaders\": [\n        {\n            \"typeInfo\": {\n                \"fullName\": \"UnityEditor.Rendering.LWRP.LightWeightPBRSubShader\"\n            },\n            \"JSONnodeData\": \"{}\"\n        }\n    ],\n    \"m_Model\": 1,\n    \"m_SurfaceType\": 1,\n    \"m_AlphaMode\": 0,\n    \"m_TwoSided\": false\n}"
        },
        {
            "typeInfo": {
                "fullName": "UnityEditor.ShaderGraph.LerpNode"
            },
            "JSONnodeData": "{\n    \"m_GuidSerialized\": \"d7562662-34c4-4db2-875a-9c9cba5f5e0a\",\n    \"m_GroupGuidSerialized\": \"00000000-0000-0000-0000-000000000000\",\n    \"m_Name\": \"Lerp\",\n    \"m_DrawState\": {\n        \"m_Expanded\": true,\n        \"m_Position\": {\n            \"serializedVersion\": \"2\",\n            \"x\": -748.9999389648438,\n            \"y\": 13.000005722045899,\n            \"width\": 207.99998474121095,\n            \"height\": 326.0\n        }\n    },\n    \"m_SerializableSlots\": [\n        {\n            \"typeInfo\": {\n                \"fullName\": \"UnityEditor.ShaderGraph.DynamicVectorMaterialSlot\"\n            },\n            \"JSONnodeData\": \"{\\n    \\\"m_Id\\\": 0,\\n    \\\"m_DisplayName\\\": \\\"A\\\",\\n    \\\"m_SlotType\\\": 0,\\n    \\\"m_Priority\\\": 2147483647,\\n    \\\"m_Hidden\\\": false,\\n    \\\"m_ShaderOutputName\\\": \\\"A\\\",\\n    \\\"m_StageCapability\\\": 3,\\n    \\\"m_Value\\\": {\\n        \\\"x\\\": 0.0,\\n        \\\"y\\\": 0.0,\\n        \\\"z\\\": 0.0,\\n        \\\"w\\\": 0.0\\n    },\\n    \\\"m_DefaultValue\\\": {\\n        \\\"x\\\": 0.0,\\n        \\\"y\\\": 0.0,\\n        \\\"z\\\": 0.0,\\n        \\\"w\\\": 0.0\\n    }\\n}\"\n        },\n        {\n            \"typeInfo\": {\n                \"fullName\": \"UnityEditor.ShaderGraph.DynamicVectorMaterialSlot\"\n            },\n            \"JSONnodeData\": \"{\\n    \\\"m_Id\\\": 1,\\n    \\\"m_DisplayName\\\": \\\"B\\\",\\n    \\\"m_SlotType\\\": 0,\\n    \\\"m_Priority\\\": 2147483647,\\n    \\\"m_Hidden\\\": false,\\n    \\\"m_ShaderOutputName\\\": \\\"B\\\",\\n    \\\"m_StageCapability\\\": 3,\\n    \\\"m_Value\\\": {\\n        \\\"x\\\": 1.0,\\n        \\\"y\\\": 1.0,\\n        \\\"z\\\": 1.0,\\n        \\\"w\\\": 1.0\\n    },\\n    \\\"m_DefaultValue\\\": {\\n        \\\"x\\\": 0.0,\\n        \\\"y\\\": 0.0,\\n        \\\"z\\\": 0.0,\\n        \\\"w\\\": 0.0\\n    }\\n}\"\n        },\n        {\n            \"typeInfo\": {\n                \"fullName\": \"UnityEditor.ShaderGraph.DynamicVectorMaterialSlot\"\n            },\n            \"JSONnodeData\": \"{\\n    \\\"m_Id\\\": 2,\\n    \\\"m_DisplayName\\\": \\\"T\\\",\\n    \\\"m_SlotType\\\": 0,\\n    \\\"m_Priority\\\": 2147483647,\\n    \\\"m_Hidden\\\": false,\\n    \\\"m_ShaderOutputName\\\": \\\"T\\\",\\n    \\\"m_StageCapability\\\": 3,\\n    \\\"m_Value\\\": {\\n        \\\"x\\\": 0.0,\\n        \\\"y\\\": 0.0,\\n        \\\"z\\\": 0.0,\\n        \\\"w\\\": 0.0\\n    },\\n    \\\"m_DefaultValue\\\": {\\n        \\\"x\\\": 0.0,\\n        \\\"y\\\": 0.0,\\n        \\\"z\\\": 0.0,\\n        \\\"w\\\": 0.0\\n    }\\n}\"\n        },\n        {\n            \"typeInfo\": {\n                \"fullName\": \"UnityEditor.ShaderGraph.DynamicVectorMaterialSlot\"\n            },\n            \"JSONnodeData\": \"{\\n    \\\"m_Id\\\": 3,\\n    \\\"m_DisplayName\\\": \\\"Out\\\",\\n    \\\"m_SlotType\\\": 1,\\n    \\\"m_Priority\\\": 2147483647,\\n    \\\"m_Hidden\\\": false,\\n    \\\"m_ShaderOutputName\\\": \\\"Out\\\",\\n    \\\"m_StageCapability\\\": 3,\\n    \\\"m_Value\\\": {\\n        \\\"x\\\": 0.0,\\n        \\\"y\\\": 0.0,\\n        \\\"z\\\": 0.0,\\n        \\\"w\\\": 0.0\\n    },\\n    \\\"m_DefaultValue\\\": {\\n        \\\"x\\\": 0.0,\\n        \\\"y\\\": 0.0,\\n        \\\"z\\\": 0.0,\\n        \\\"w\\\": 0.0\\n    }\\n}\"\n        }\n    ],\n    \"m_Precision\": 0,\n    \"m_PreviewExpanded\": true,\n    \"m_CustomColors\": {\n        \"m_SerializableColors\": []\n    }\n}"
        },
        {
            "typeInfo": {
                "fullName": "UnityEditor.ShaderGraph.MultiplyNode"
            },
            "JSONnodeData": "{\n    \"m_GuidSerialized\": \"34e27eda-49c1-478d-a84e-e1dc4e3d782a\",\n    \"m_GroupGuidSerialized\": \"00000000-0000-0000-0000-000000000000\",\n    \"m_Name\": \"Multiply\",\n    \"m_DrawState\": {\n        \"m_Expanded\": true,\n        \"m_Position\": {\n            \"serializedVersion\": \"2\",\n            \"x\": -361.0,\n            \"y\": 17.0000057220459,\n            \"width\": 208.00001525878907,\n            \"height\": 302.0\n        }\n    },\n    \"m_SerializableSlots\": [\n        {\n            \"typeInfo\": {\n                \"fullName\": \"UnityEditor.ShaderGraph.DynamicValueMaterialSlot\"\n            },\n            \"JSONnodeData\": \"{\\n    \\\"m_Id\\\": 0,\\n    \\\"m_DisplayName\\\": \\\"A\\\",\\n    \\\"m_SlotType\\\": 0,\\n    \\\"m_Priority\\\": 2147483647,\\n    \\\"m_Hidden\\\": false,\\n    \\\"m_ShaderOutputName\\\": \\\"A\\\",\\n    \\\"m_StageCapability\\\": 3,\\n    \\\"m_Value\\\": {\\n        \\\"e00\\\": 0.0,\\n        \\\"e01\\\": 0.0,\\n        \\\"e02\\\": 0.0,\\n        \\\"e03\\\": 0.0,\\n        \\\"e10\\\": 0.0,\\n        \\\"e11\\\": 0.0,\\n        \\\"e12\\\": 0.0,\\n        \\\"e13\\\": 0.0,\\n        \\\"e20\\\": 0.0,\\n        \\\"e21\\\": 0.0,\\n        \\\"e22\\\": 0.0,\\n        \\\"e23\\\": 0.0,\\n        \\\"e30\\\": 0.0,\\n        \\\"e31\\\": 0.0,\\n        \\\"e32\\\": 0.0,\\n        \\\"e33\\\": 0.0\\n    },\\n    \\\"m_DefaultValue\\\": {\\n        \\\"e00\\\": 1.0,\\n        \\\"e01\\\": 0.0,\\n        \\\"e02\\\": 0.0,\\n        \\\"e03\\\": 0.0,\\n        \\\"e10\\\": 0.0,\\n        \\\"e11\\\": 1.0,\\n        \\\"e12\\\": 0.0,\\n        \\\"e13\\\": 0.0,\\n        \\\"e20\\\": 0.0,\\n        \\\"e21\\\": 0.0,\\n        \\\"e22\\\": 1.0,\\n        \\\"e23\\\": 0.0,\\n        \\\"e30\\\": 0.0,\\n        \\\"e31\\\": 0.0,\\n        \\\"e32\\\": 0.0,\\n        \\\"e33\\\": 1.0\\n    }\\n}\"\n        },\n        {\n            \"typeInfo\": {\n                \"fullName\": \"UnityEditor.ShaderGraph.DynamicValueMaterialSlot\"\n            },\n            \"JSONnodeData\": \"{\\n    \\\"m_Id\\\": 1,\\n    \\\"m_DisplayName\\\": \\\"B\\\",\\n    \\\"m_SlotType\\\": 0,\\n    \\\"m_Priority\\\": 2147483647,\\n    \\\"m_Hidden\\\": false,\\n    \\\"m_ShaderOutputName\\\": \\\"B\\\",\\n    \\\"m_StageCapability\\\": 3,\\n    \\\"m_Value\\\": {\\n        \\\"e00\\\": 2.0,\\n        \\\"e01\\\": 2.0,\\n        \\\"e02\\\": 2.0,\\n        \\\"e03\\\": 2.0,\\n        \\\"e10\\\": 2.0,\\n        \\\"e11\\\": 2.0,\\n        \\\"e12\\\": 2.0,\\n        \\\"e13\\\": 2.0,\\n        \\\"e20\\\": 2.0,\\n        \\\"e21\\\": 2.0,\\n        \\\"e22\\\": 2.0,\\n        \\\"e23\\\": 2.0,\\n        \\\"e30\\\": 2.0,\\n        \\\"e31\\\": 2.0,\\n        \\\"e32\\\": 2.0,\\n        \\\"e33\\\": 2.0\\n    },\\n    \\\"m_DefaultValue\\\": {\\n        \\\"e00\\\": 1.0,\\n        \\\"e01\\\": 0.0,\\n        \\\"e02\\\": 0.0,\\n        \\\"e03\\\": 0.0,\\n        \\\"e10\\\": 0.0,\\n        \\\"e11\\\": 1.0,\\n        \\\"e12\\\": 0.0,\\n        \\\"e13\\\": 0.0,\\n        \\\"e20\\\": 0.0,\\n        \\\"e21\\\": 0.0,\\n        \\\"e22\\\": 1.0,\\n        \\\"e23\\\": 0.0,\\n        \\\"e30\\\": 0.0,\\n        \\\"e31\\\": 0.0,\\n        \\\"e32\\\": 0.0,\\n        \\\"e33\\\": 1.0\\n    }\\n}\"\n        },\n        {\n            \"typeInfo\": {\n                \"fullName\": \"UnityEditor.ShaderGraph.DynamicValueMaterialSlot\"\n            },\n            \"JSONnodeData\": \"{\\n    \\\"m_Id\\\": 2,\\n    \\\"m_DisplayName\\\": \\\"Out\\\",\\n    \\\"m_SlotType\\\": 1,\\n    \\\"m_Priority\\\": 2147483647,\\n    \\\"m_Hidden\\\": false,\\n    \\\"m_ShaderOutputName\\\": \\\"Out\\\",\\n    \\\"m_StageCapability\\\": 3,\\n    \\\"m_Value\\\": {\\n        \\\"e00\\\": 0.0,\\n        \\\"e01\\\": 0.0,\\n        \\\"e02\\\": 0.0,\\n        \\\"e03\\\": 0.0,\\n        \\\"e10\\\": 0.0,\\n        \\\"e11\\\": 0.0,\\n        \\\"e12\\\": 0.0,\\n        \\\"e13\\\": 0.0,\\n        \\\"e20\\\": 0.0,\\n        \\\"e21\\\": 0.0,\\n        \\\"e22\\\": 0.0,\\n        \\\"e23\\\": 0.0,\\n        \\\"e30\\\": 0.0,\\n        \\\"e31\\\": 0.0,\\n        \\\"e32\\\": 0.0,\\n        \\\"e33\\\": 0.0\\n    },\\n    \\\"m_DefaultValue\\\": {\\n        \\\"e00\\\": 1.0,\\n        \\\"e01\\\": 0.0,\\n        \\\"e02\\\": 0.0,\\n        \\\"e03\\\": 0.0,\\n        \\\"e10\\\": 0.0,\\n        \\\"e11\\\": 1.0,\\n        \\\"e12\\\": 0.0,\\n        \\\"e13\\\": 0.0,\\n        \\\"e20\\\": 0.0,\\n        \\\"e21\\\": 0.0,\\n        \\\"e22\\\": 1.0,\\n        \\\"e23\\\": 0.0,\\n        \\\"e30\\\": 0.0,\\n        \\\"e31\\\": 0.0,\\n        \\\"e32\\\": 0.0,\\n        \\\"e33\\\": 1.0\\n    }\\n}\"\n        }\n    ],\n    \"m_Precision\": 0,\n    \"m_PreviewExpanded\": true,\n    \"m_CustomColors\": {\n        \"m_SerializableColors\": []\n    }\n}"
        },
        {
            "typeInfo": {
                "fullName": "UnityEditor.ShaderGraph.PropertyNode"
            },
            "JSONnodeData": "{\n    \"m_GuidSerialized\": \"c892fa04-fc14-4c09-97e9-9110b65790bb\",\n    \"m_GroupGuidSerialized\": \"00000000-0000-0000-0000-000000000000\",\n    \"m_Name\": \"Property\",\n    \"m_DrawState\": {\n        \"m_Expanded\": true,\n        \"m_Position\": {\n            \"serializedVersion\": \"2\",\n            \"x\": -995.0000610351563,\n            \"y\": 246.99998474121095,\n            \"width\": 160.00001525878907,\n            \"height\": 34.0\n        }\n    },\n    \"m_SerializableSlots\": [\n        {\n            \"typeInfo\": {\n                \"fullName\": \"UnityEditor.ShaderGraph.Vector1MaterialSlot\"\n            },\n            \"JSONnodeData\": \"{\\n    \\\"m_Id\\\": 0,\\n    \\\"m_DisplayName\\\": \\\"DiffuseTransition\\\",\\n    \\\"m_SlotType\\\": 1,\\n    \\\"m_Priority\\\": 2147483647,\\n    \\\"m_Hidden\\\": false,\\n    \\\"m_ShaderOutputName\\\": \\\"Out\\\",\\n    \\\"m_StageCapability\\\": 3,\\n    \\\"m_Value\\\": 0.0,\\n    \\\"m_DefaultValue\\\": 0.0,\\n    \\\"m_Labels\\\": [\\n        \\\"X\\\"\\n    ]\\n}\"\n        }\n    ],\n    \"m_Precision\": 0,\n    \"m_PreviewExpanded\": true,\n    \"m_CustomColors\": {\n        \"m_SerializableColors\": []\n    },\n    \"m_PropertyGuidSerialized\": \"2b4d0c1c-de52-4ee5-a7f1-560c5ce66115\"\n}"
        },
        {
            "typeInfo": {
                "fullName": "UnityEditor.ShaderGraph.AddNode"
            },
            "JSONnodeData": "{\n    \"m_GuidSerialized\": \"cd43b258-3b75-4d76-999d-10d03352376c\",\n    \"m_GroupGuidSerialized\": \"00000000-0000-0000-0000-000000000000\",\n    \"m_Name\": \"Add\",\n    \"m_DrawState\": {\n        \"m_Expanded\": true,\n        \"m_Position\": {\n            \"serializedVersion\": \"2\",\n            \"x\": -664.0,\n            \"y\": 368.0000305175781,\n            \"width\": 208.0,\n            \"height\": 302.0\n        }\n    },\n    \"m_SerializableSlots\": [\n        {\n            \"typeInfo\": {\n                \"fullName\": \"UnityEditor.ShaderGraph.DynamicVectorMaterialSlot\"\n            },\n            \"JSONnodeData\": \"{\\n    \\\"m_Id\\\": 0,\\n    \\\"m_DisplayName\\\": \\\"A\\\",\\n    \\\"m_SlotType\\\": 0,\\n    \\\"m_Priority\\\": 2147483647,\\n    \\\"m_Hidden\\\": false,\\n    \\\"m_ShaderOutputName\\\": \\\"A\\\",\\n    \\\"m_StageCapability\\\": 3,\\n    \\\"m_Value\\\": {\\n        \\\"x\\\": 0.0,\\n        \\\"y\\\": 0.0,\\n        \\\"z\\\": 0.0,\\n        \\\"w\\\": 0.0\\n    },\\n    \\\"m_DefaultValue\\\": {\\n        \\\"x\\\": 0.0,\\n        \\\"y\\\": 0.0,\\n        \\\"z\\\": 0.0,\\n        \\\"w\\\": 0.0\\n    }\\n}\"\n        },\n        {\n            \"typeInfo\": {\n                \"fullName\": \"UnityEditor.ShaderGraph.DynamicVectorMaterialSlot\"\n            },\n            \"JSONnodeData\": \"{\\n    \\\"m_Id\\\": 1,\\n    \\\"m_DisplayName\\\": \\\"B\\\",\\n    \\\"m_SlotType\\\": 0,\\n    \\\"m_Priority\\\": 2147483647,\\n    \\\"m_Hidden\\\": false,\\n    \\\"m_ShaderOutputName\\\": \\\"B\\\",\\n    \\\"m_StageCapability\\\": 3,\\n    \\\"m_Value\\\": {\\n        \\\"x\\\": 0.0,\\n        \\\"y\\\": 0.0,\\n        \\\"z\\\": 0.0,\\n        \\\"w\\\": 0.0\\n    },\\n    \\\"m_DefaultValue\\\": {\\n        \\\"x\\\": 0.0,\\n        \\\"y\\\": 0.0,\\n        \\\"z\\\": 0.0,\\n        \\\"w\\\": 0.0\\n    }\\n}\"\n        },\n        {\n            \"typeInfo\": {\n                \"fullName\": \"UnityEditor.ShaderGraph.DynamicVectorMaterialSlot\"\n            },\n            \"JSONnodeData\": \"{\\n    \\\"m_Id\\\": 2,\\n    \\\"m_DisplayName\\\": \\\"Out\\\",\\n    \\\"m_SlotType\\\": 1,\\n    \\\"m_Priority\\\": 2147483647,\\n    \\\"m_Hidden\\\": false,\\n    \\\"m_ShaderOutputName\\\": \\\"Out\\\",\\n    \\\"m_StageCapability\\\": 3,\\n    \\\"m_Value\\\": {\\n        \\\"x\\\": 0.0,\\n        \\\"y\\\": 0.0,\\n        \\\"z\\\": 0.0,\\n        \\\"w\\\": 0.0\\n    },\\n    \\\"m_DefaultValue\\\": {\\n        \\\"x\\\": 0.0,\\n        \\\"y\\\": 0.0,\\n        \\\"z\\\": 0.0,\\n        \\\"w\\\": 0.0\\n    }\\n}\"\n        }\n    ],\n    \"m_Precision\": 0,\n    \"m_PreviewExpanded\": true,\n    \"m_CustomColors\": {\n        \"m_SerializableColors\": []\n    }\n}"
        },
        {
            "typeInfo": {
                "fullName": "UnityEditor.ShaderGraph.ClampNode"
            },
            "JSONnodeData": "{\n    \"m_GuidSerialized\": \"aa9419e5-e30b-4ffe-b73a-b8653c582312\",\n    \"m_GroupGuidSerialized\": \"00000000-0000-0000-0000-000000000000\",\n    \"m_Name\": \"Clamp\",\n    \"m_DrawState\": {\n        \"m_Expanded\": true,\n        \"m_Position\": {\n            \"serializedVersion\": \"2\",\n            \"x\": -363.9999694824219,\n            \"y\": 428.0,\n            \"width\": 208.0,\n            \"height\": 326.0\n        }\n    },\n    \"m_SerializableSlots\": [\n        {\n            \"typeInfo\": {\n                \"fullName\": \"UnityEditor.ShaderGraph.DynamicVectorMaterialSlot\"\n            },\n            \"JSONnodeData\": \"{\\n    \\\"m_Id\\\": 0,\\n    \\\"m_DisplayName\\\": \\\"In\\\",\\n    \\\"m_SlotType\\\": 0,\\n    \\\"m_Priority\\\": 2147483647,\\n    \\\"m_Hidden\\\": false,\\n    \\\"m_ShaderOutputName\\\": \\\"In\\\",\\n    \\\"m_StageCapability\\\": 3,\\n    \\\"m_Value\\\": {\\n        \\\"x\\\": 0.0,\\n        \\\"y\\\": 0.0,\\n        \\\"z\\\": 0.0,\\n        \\\"w\\\": 0.0\\n    },\\n    \\\"m_DefaultValue\\\": {\\n        \\\"x\\\": 0.0,\\n        \\\"y\\\": 0.0,\\n        \\\"z\\\": 0.0,\\n        \\\"w\\\": 0.0\\n    }\\n}\"\n        },\n        {\n            \"typeInfo\": {\n                \"fullName\": \"UnityEditor.ShaderGraph.DynamicVectorMaterialSlot\"\n            },\n            \"JSONnodeData\": \"{\\n    \\\"m_Id\\\": 1,\\n    \\\"m_DisplayName\\\": \\\"Min\\\",\\n    \\\"m_SlotType\\\": 0,\\n    \\\"m_Priority\\\": 2147483647,\\n    \\\"m_Hidden\\\": false,\\n    \\\"m_ShaderOutputName\\\": \\\"Min\\\",\\n    \\\"m_StageCapability\\\": 3,\\n    \\\"m_Value\\\": {\\n        \\\"x\\\": 0.0,\\n        \\\"y\\\": 0.0,\\n        \\\"z\\\": 0.0,\\n        \\\"w\\\": 0.0\\n    },\\n    \\\"m_DefaultValue\\\": {\\n        \\\"x\\\": 0.0,\\n        \\\"y\\\": 0.0,\\n        \\\"z\\\": 0.0,\\n        \\\"w\\\": 0.0\\n    }\\n}\"\n        },\n        {\n            \"typeInfo\": {\n                \"fullName\": \"UnityEditor.ShaderGraph.DynamicVectorMaterialSlot\"\n            },\n            \"JSONnodeData\": \"{\\n    \\\"m_Id\\\": 2,\\n    \\\"m_DisplayName\\\": \\\"Max\\\",\\n    \\\"m_SlotType\\\": 0,\\n    \\\"m_Priority\\\": 2147483647,\\n    \\\"m_Hidden\\\": false,\\n    \\\"m_ShaderOutputName\\\": \\\"Max\\\",\\n    \\\"m_StageCapability\\\": 3,\\n    \\\"m_Value\\\": {\\n        \\\"x\\\": 1.0,\\n        \\\"y\\\": 1.0,\\n        \\\"z\\\": 1.0,\\n        \\\"w\\\": 1.0\\n    },\\n    \\\"m_DefaultValue\\\": {\\n        \\\"x\\\": 0.0,\\n        \\\"y\\\": 0.0,\\n        \\\"z\\\": 0.0,\\n        \\\"w\\\": 0.0\\n    }\\n}\"\n        },\n        {\n            \"typeInfo\": {\n                \"fullName\": \"UnityEditor.ShaderGraph.DynamicVectorMaterialSlot\"\n            },\n            \"JSONnodeData\": \"{\\n    \\\"m_Id\\\": 3,\\n    \\\"m_DisplayName\\\": \\\"Out\\\",\\n    \\\"m_SlotType\\\": 1,\\n    \\\"m_Priority\\\": 2147483647,\\n    \\\"m_Hidden\\\": false,\\n    \\\"m_ShaderOutputName\\\": \\\"Out\\\",\\n    \\\"m_StageCapability\\\": 3,\\n    \\\"m_Value\\\": {\\n        \\\"x\\\": 0.0,\\n        \\\"y\\\": 0.0,\\n        \\\"z\\\": 0.0,\\n        \\\"w\\\": 0.0\\n    },\\n    \\\"m_DefaultValue\\\": {\\n        \\\"x\\\": 0.0,\\n        \\\"y\\\": 0.0,\\n        \\\"z\\\": 0.0,\\n        \\\"w\\\": 0.0\\n    }\\n}\"\n        }\n    ],\n    \"m_Precision\": 0,\n    \"m_PreviewExpanded\": true,\n    \"m_CustomColors\": {\n        \"m_SerializableColors\": []\n    }\n}"
        },
        {
            "typeInfo": {
                "fullName": "UnityEditor.ShaderGraph.PropertyNode"
            },
            "JSONnodeData": "{\n    \"m_GuidSerialized\": \"b78c3d3c-c2e3-42ab-a450-788621432a78\",\n    \"m_GroupGuidSerialized\": \"00000000-0000-0000-0000-000000000000\",\n    \"m_Name\": \"Property\",\n    \"m_DrawState\": {\n        \"m_Expanded\": true,\n        \"m_Position\": {\n            \"serializedVersion\": \"2\",\n            \"x\": -1362.7039794921875,\n            \"y\": -577.9324951171875,\n            \"width\": 0.0,\n            \"height\": 0.0\n        }\n    },\n    \"m_SerializableSlots\": [\n        {\n            \"typeInfo\": {\n                \"fullName\": \"UnityEditor.ShaderGraph.Texture2DMaterialSlot\"\n            },\n            \"JSONnodeData\": \"{\\n    \\\"m_Id\\\": 0,\\n    \\\"m_DisplayName\\\": \\\"MainTexture\\\",\\n    \\\"m_SlotType\\\": 1,\\n    \\\"m_Priority\\\": 2147483647,\\n    \\\"m_Hidden\\\": false,\\n    \\\"m_ShaderOutputName\\\": \\\"Out\\\",\\n    \\\"m_StageCapability\\\": 3\\n}\"\n        }\n    ],\n    \"m_Precision\": 0,\n    \"m_PreviewExpanded\": true,\n    \"m_CustomColors\": {\n        \"m_SerializableColors\": []\n    },\n    \"m_PropertyGuidSerialized\": \"22d44ca7-e555-4d2b-b2c2-c6bb70aa67be\"\n}"
        },
        {
            "typeInfo": {
                "fullName": "UnityEditor.ShaderGraph.SplitNode"
            },
            "JSONnodeData": "{\n    \"m_GuidSerialized\": \"7ae44c5b-6003-4823-a2a7-3308bbc2afd8\",\n    \"m_GroupGuidSerialized\": \"00000000-0000-0000-0000-000000000000\",\n    \"m_Name\": \"Split\",\n    \"m_DrawState\": {\n        \"m_Expanded\": true,\n        \"m_Position\": {\n            \"serializedVersion\": \"2\",\n            \"x\": -758.0,\n            \"y\": 736.9999389648438,\n            \"width\": 117.99999237060547,\n            \"height\": 149.0\n        }\n    },\n    \"m_SerializableSlots\": [\n        {\n            \"typeInfo\": {\n                \"fullName\": \"UnityEditor.ShaderGraph.DynamicVectorMaterialSlot\"\n            },\n            \"JSONnodeData\": \"{\\n    \\\"m_Id\\\": 0,\\n    \\\"m_DisplayName\\\": \\\"In\\\",\\n    \\\"m_SlotType\\\": 0,\\n    \\\"m_Priority\\\": 2147483647,\\n    \\\"m_Hidden\\\": false,\\n    \\\"m_ShaderOutputName\\\": \\\"In\\\",\\n    \\\"m_StageCapability\\\": 3,\\n    \\\"m_Value\\\": {\\n        \\\"x\\\": 0.0,\\n        \\\"y\\\": 0.0,\\n        \\\"z\\\": 0.0,\\n        \\\"w\\\": 0.0\\n    },\\n    \\\"m_DefaultValue\\\": {\\n        \\\"x\\\": 0.0,\\n        \\\"y\\\": 0.0,\\n        \\\"z\\\": 0.0,\\n        \\\"w\\\": 0.0\\n    }\\n}\"\n        },\n        {\n            \"typeInfo\": {\n                \"fullName\": \"UnityEditor.ShaderGraph.Vector1MaterialSlot\"\n            },\n            \"JSONnodeData\": \"{\\n    \\\"m_Id\\\": 1,\\n    \\\"m_DisplayName\\\": \\\"R\\\",\\n    \\\"m_SlotType\\\": 1,\\n    \\\"m_Priority\\\": 2147483647,\\n    \\\"m_Hidden\\\": false,\\n    \\\"m_ShaderOutputName\\\": \\\"R\\\",\\n    \\\"m_StageCapability\\\": 3,\\n    \\\"m_Value\\\": 0.0,\\n    \\\"m_DefaultValue\\\": 0.0,\\n    \\\"m_Labels\\\": [\\n        \\\"X\\\"\\n    ]\\n}\"\n        },\n        {\n            \"typeInfo\": {\n                \"fullName\": \"UnityEditor.ShaderGraph.Vector1MaterialSlot\"\n            },\n            \"JSONnodeData\": \"{\\n    \\\"m_Id\\\": 2,\\n    \\\"m_DisplayName\\\": \\\"G\\\",\\n    \\\"m_SlotType\\\": 1,\\n    \\\"m_Priority\\\": 2147483647,\\n    \\\"m_Hidden\\\": false,\\n    \\\"m_ShaderOutputName\\\": \\\"G\\\",\\n    \\\"m_StageCapability\\\": 3,\\n    \\\"m_Value\\\": 0.0,\\n    \\\"m_DefaultValue\\\": 0.0,\\n    \\\"m_Labels\\\": [\\n        \\\"X\\\"\\n    ]\\n}\"\n        },\n        {\n            \"typeInfo\": {\n                \"fullName\": \"UnityEditor.ShaderGraph.Vector1MaterialSlot\"\n            },\n            \"JSONnodeData\": \"{\\n    \\\"m_Id\\\": 3,\\n    \\\"m_DisplayName\\\": \\\"B\\\",\\n    \\\"m_SlotType\\\": 1,\\n    \\\"m_Priority\\\": 2147483647,\\n    \\\"m_Hidden\\\": false,\\n    \\\"m_ShaderOutputName\\\": \\\"B\\\",\\n    \\\"m_StageCapability\\\": 3,\\n    \\\"m_Value\\\": 0.0,\\n    \\\"m_DefaultValue\\\": 0.0,\\n    \\\"m_Labels\\\": [\\n        \\\"X\\\"\\n    ]\\n}\"\n        },\n        {\n            \"typeInfo\": {\n                \"fullName\": \"UnityEditor.ShaderGraph.Vector1MaterialSlot\"\n            },\n            \"JSONnodeData\": \"{\\n    \\\"m_Id\\\": 4,\\n    \\\"m_DisplayName\\\": \\\"A\\\",\\n    \\\"m_SlotType\\\": 1,\\n    \\\"m_Priority\\\": 2147483647,\\n    \\\"m_Hidden\\\": false,\\n    \\\"m_ShaderOutputName\\\": \\\"A\\\",\\n    \\\"m_StageCapability\\\": 3,\\n    \\\"m_Value\\\": 0.0,\\n    \\\"m_DefaultValue\\\": 0.0,\\n    \\\"m_Labels\\\": [\\n        \\\"X\\\"\\n    ]\\n}\"\n        }\n    ],\n    \"m_Precision\": 0,\n    \"m_PreviewExpanded\": true,\n    \"m_CustomColors\": {\n        \"m_SerializableColors\": []\n    }\n}"
        },
        {
            "typeInfo": {
                "fullName": "UnityEditor.ShaderGraph.MultiplyNode"
            },
            "JSONnodeData": "{\n    \"m_GuidSerialized\": \"1eb6f74d-12fc-4ace-8ac2-d3d50430f4db\",\n    \"m_GroupGuidSerialized\": \"00000000-0000-0000-0000-000000000000\",\n    \"m_Name\": \"Multiply\",\n    \"m_DrawState\": {\n        \"m_Expanded\": true,\n        \"m_Position\": {\n            \"serializedVersion\": \"2\",\n            \"x\": -98.99995422363281,\n            \"y\": 434.0,\n            \"width\": 208.0,\n            \"height\": 301.9999694824219\n        }\n    },\n    \"m_SerializableSlots\": [\n        {\n            \"typeInfo\": {\n                \"fullName\": \"UnityEditor.ShaderGraph.DynamicValueMaterialSlot\"\n            },\n            \"JSONnodeData\": \"{\\n    \\\"m_Id\\\": 0,\\n    \\\"m_DisplayName\\\": \\\"A\\\",\\n    \\\"m_SlotType\\\": 0,\\n    \\\"m_Priority\\\": 2147483647,\\n    \\\"m_Hidden\\\": false,\\n    \\\"m_ShaderOutputName\\\": \\\"A\\\",\\n    \\\"m_StageCapability\\\": 3,\\n    \\\"m_Value\\\": {\\n        \\\"e00\\\": 0.0,\\n        \\\"e01\\\": 0.0,\\n        \\\"e02\\\": 0.0,\\n        \\\"e03\\\": 0.0,\\n        \\\"e10\\\": 0.0,\\n        \\\"e11\\\": 0.0,\\n        \\\"e12\\\": 0.0,\\n        \\\"e13\\\": 0.0,\\n        \\\"e20\\\": 0.0,\\n        \\\"e21\\\": 0.0,\\n        \\\"e22\\\": 0.0,\\n        \\\"e23\\\": 0.0,\\n        \\\"e30\\\": 0.0,\\n        \\\"e31\\\": 0.0,\\n        \\\"e32\\\": 0.0,\\n        \\\"e33\\\": 0.0\\n    },\\n    \\\"m_DefaultValue\\\": {\\n        \\\"e00\\\": 1.0,\\n        \\\"e01\\\": 0.0,\\n        \\\"e02\\\": 0.0,\\n        \\\"e03\\\": 0.0,\\n        \\\"e10\\\": 0.0,\\n        \\\"e11\\\": 1.0,\\n        \\\"e12\\\": 0.0,\\n        \\\"e13\\\": 0.0,\\n        \\\"e20\\\": 0.0,\\n        \\\"e21\\\": 0.0,\\n        \\\"e22\\\": 1.0,\\n        \\\"e23\\\": 0.0,\\n        \\\"e30\\\": 0.0,\\n        \\\"e31\\\": 0.0,\\n        \\\"e32\\\": 0.0,\\n        \\\"e33\\\": 1.0\\n    }\\n}\"\n        },\n        {\n            \"typeInfo\": {\n                \"fullName\": \"UnityEditor.ShaderGraph.DynamicValueMaterialSlot\"\n            },\n            \"JSONnodeData\": \"{\\n    \\\"m_Id\\\": 1,\\n    \\\"m_DisplayName\\\": \\\"B\\\",\\n    \\\"m_SlotType\\\": 0,\\n    \\\"m_Priority\\\": 2147483647,\\n    \\\"m_Hidden\\\": false,\\n    \\\"m_ShaderOutputName\\\": \\\"B\\\",\\n    \\\"m_StageCapability\\\": 3,\\n    \\\"m_Value\\\": {\\n        \\\"e00\\\": 2.0,\\n        \\\"e01\\\": 2.0,\\n        \\\"e02\\\": 2.0,\\n        \\\"e03\\\": 2.0,\\n        \\\"e10\\\": 2.0,\\n        \\\"e11\\\": 2.0,\\n        \\\"e12\\\": 2.0,\\n        \\\"e13\\\": 2.0,\\n        \\\"e20\\\": 2.0,\\n        \\\"e21\\\": 2.0,\\n        \\\"e22\\\": 2.0,\\n        \\\"e23\\\": 2.0,\\n        \\\"e30\\\": 2.0,\\n        \\\"e31\\\": 2.0,\\n        \\\"e32\\\": 2.0,\\n        \\\"e33\\\": 2.0\\n    },\\n    \\\"m_DefaultValue\\\": {\\n        \\\"e00\\\": 1.0,\\n        \\\"e01\\\": 0.0,\\n        \\\"e02\\\": 0.0,\\n        \\\"e03\\\": 0.0,\\n        \\\"e10\\\": 0.0,\\n        \\\"e11\\\": 1.0,\\n        \\\"e12\\\": 0.0,\\n        \\\"e13\\\": 0.0,\\n        \\\"e20\\\": 0.0,\\n        \\\"e21\\\": 0.0,\\n        \\\"e22\\\": 1.0,\\n        \\\"e23\\\": 0.0,\\n        \\\"e30\\\": 0.0,\\n        \\\"e31\\\": 0.0,\\n        \\\"e32\\\": 0.0,\\n        \\\"e33\\\": 1.0\\n    }\\n}\"\n        },\n        {\n            \"typeInfo\": {\n                \"fullName\": \"UnityEditor.ShaderGraph.DynamicValueMaterialSlot\"\n            },\n            \"JSONnodeData\": \"{\\n    \\\"m_Id\\\": 2,\\n    \\\"m_DisplayName\\\": \\\"Out\\\",\\n    \\\"m_SlotType\\\": 1,\\n    \\\"m_Priority\\\": 2147483647,\\n    \\\"m_Hidden\\\": false,\\n    \\\"m_ShaderOutputName\\\": \\\"Out\\\",\\n    \\\"m_StageCapability\\\": 3,\\n    \\\"m_Value\\\": {\\n        \\\"e00\\\": 0.0,\\n        \\\"e01\\\": 0.0,\\n        \\\"e02\\\": 0.0,\\n        \\\"e03\\\": 0.0,\\n        \\\"e10\\\": 0.0,\\n        \\\"e11\\\": 0.0,\\n        \\\"e12\\\": 0.0,\\n        \\\"e13\\\": 0.0,\\n        \\\"e20\\\": 0.0,\\n        \\\"e21\\\": 0.0,\\n        \\\"e22\\\": 0.0,\\n        \\\"e23\\\": 0.0,\\n        \\\"e30\\\": 0.0,\\n        \\\"e31\\\": 0.0,\\n        \\\"e32\\\": 0.0,\\n        \\\"e33\\\": 0.0\\n    },\\n    \\\"m_DefaultValue\\\": {\\n        \\\"e00\\\": 1.0,\\n        \\\"e01\\\": 0.0,\\n        \\\"e02\\\": 0.0,\\n        \\\"e03\\\": 0.0,\\n        \\\"e10\\\": 0.0,\\n        \\\"e11\\\": 1.0,\\n        \\\"e12\\\": 0.0,\\n        \\\"e13\\\": 0.0,\\n        \\\"e20\\\": 0.0,\\n        \\\"e21\\\": 0.0,\\n        \\\"e22\\\": 1.0,\\n        \\\"e23\\\": 0.0,\\n        \\\"e30\\\": 0.0,\\n        \\\"e31\\\": 0.0,\\n        \\\"e32\\\": 0.0,\\n        \\\"e33\\\": 1.0\\n    }\\n}\"\n        }\n    ],\n    \"m_Precision\": 0,\n    \"m_PreviewExpanded\": true,\n    \"m_CustomColors\": {\n        \"m_SerializableColors\": []\n    }\n}"
        }
    ],
    "m_Groups": [],
    "m_SerializableEdges": [
        {
            "typeInfo": {
                "fullName": "UnityEditor.Graphing.Edge"
            },
            "JSONnodeData": "{\n    \"m_OutputSlot\": {\n        \"m_SlotId\": 2,\n        \"m_NodeGUIDSerialized\": \"6d77b0ba-3d60-41e4-8357-57a93a44059d\"\n    },\n    \"m_InputSlot\": {\n        \"m_SlotId\": 0,\n        \"m_NodeGUIDSerialized\": \"593de488-7b2d-4101-8855-ce45dd161ad0\"\n    }\n}"
        },
        {
            "typeInfo": {
                "fullName": "UnityEditor.Graphing.Edge"
            },
            "JSONnodeData": "{\n    \"m_OutputSlot\": {\n        \"m_SlotId\": 3,\n        \"m_NodeGUIDSerialized\": \"d7562662-34c4-4db2-875a-9c9cba5f5e0a\"\n    },\n    \"m_InputSlot\": {\n        \"m_SlotId\": 0,\n        \"m_NodeGUIDSerialized\": \"34e27eda-49c1-478d-a84e-e1dc4e3d782a\"\n    }\n}"
        },
        {
            "typeInfo": {
                "fullName": "UnityEditor.Graphing.Edge"
            },
            "JSONnodeData": "{\n    \"m_OutputSlot\": {\n        \"m_SlotId\": 3,\n        \"m_NodeGUIDSerialized\": \"593de488-7b2d-4101-8855-ce45dd161ad0\"\n    },\n    \"m_InputSlot\": {\n        \"m_SlotId\": 1,\n        \"m_NodeGUIDSerialized\": \"cd43b258-3b75-4d76-999d-10d03352376c\"\n    }\n}"
        },
        {
            "typeInfo": {
                "fullName": "UnityEditor.Graphing.Edge"
            },
            "JSONnodeData": "{\n    \"m_OutputSlot\": {\n        \"m_SlotId\": 0,\n        \"m_NodeGUIDSerialized\": \"c892fa04-fc14-4c09-97e9-9110b65790bb\"\n    },\n    \"m_InputSlot\": {\n        \"m_SlotId\": 0,\n        \"m_NodeGUIDSerialized\": \"cd43b258-3b75-4d76-999d-10d03352376c\"\n    }\n}"
        },
        {
            "typeInfo": {
                "fullName": "UnityEditor.Graphing.Edge"
            },
            "JSONnodeData": "{\n    \"m_OutputSlot\": {\n        \"m_SlotId\": 2,\n        \"m_NodeGUIDSerialized\": \"cd43b258-3b75-4d76-999d-10d03352376c\"\n    },\n    \"m_InputSlot\": {\n        \"m_SlotId\": 0,\n        \"m_NodeGUIDSerialized\": \"aa9419e5-e30b-4ffe-b73a-b8653c582312\"\n    }\n}"
        },
        {
            "typeInfo": {
                "fullName": "UnityEditor.Graphing.Edge"
            },
            "JSONnodeData": "{\n    \"m_OutputSlot\": {\n        \"m_SlotId\": 2,\n        \"m_NodeGUIDSerialized\": \"34e27eda-49c1-478d-a84e-e1dc4e3d782a\"\n    },\n    \"m_InputSlot\": {\n        \"m_SlotId\": 0,\n        \"m_NodeGUIDSerialized\": \"3c764673-d288-449c-8f0c-84c7f99edfd8\"\n    }\n}"
        },
        {
            "typeInfo": {
                "fullName": "UnityEditor.Graphing.Edge"
            },
            "JSONnodeData": "{\n    \"m_OutputSlot\": {\n        \"m_SlotId\": 0,\n        \"m_NodeGUIDSerialized\": \"f4d581c3-3ff7-4f9f-a782-2d9a71bcf228\"\n    },\n    \"m_InputSlot\": {\n        \"m_SlotId\": 1,\n        \"m_NodeGUIDSerialized\": \"d7562662-34c4-4db2-875a-9c9cba5f5e0a\"\n    }\n}"
        },
        {
            "typeInfo": {
                "fullName": "UnityEditor.Graphing.Edge"
            },
            "JSONnodeData": "{\n    \"m_OutputSlot\": {\n        \"m_SlotId\": 0,\n        \"m_NodeGUIDSerialized\": \"b78c3d3c-c2e3-42ab-a450-788621432a78\"\n    },\n    \"m_InputSlot\": {\n        \"m_SlotId\": 1,\n        \"m_NodeGUIDSerialized\": \"009655dc-fe8d-4941-bd43-bb2c71a76b81\"\n    }\n}"
        },
        {
            "typeInfo": {
                "fullName": "UnityEditor.Graphing.Edge"
            },
            "JSONnodeData": "{\n    \"m_OutputSlot\": {\n        \"m_SlotId\": 0,\n        \"m_NodeGUIDSerialized\": \"009655dc-fe8d-4941-bd43-bb2c71a76b81\"\n    },\n    \"m_InputSlot\": {\n        \"m_SlotId\": 0,\n        \"m_NodeGUIDSerialized\": \"d7562662-34c4-4db2-875a-9c9cba5f5e0a\"\n    }\n}"
        },
        {
            "typeInfo": {
                "fullName": "UnityEditor.Graphing.Edge"
            },
            "JSONnodeData": "{\n    \"m_OutputSlot\": {\n        \"m_SlotId\": 0,\n        \"m_NodeGUIDSerialized\": \"009655dc-fe8d-4941-bd43-bb2c71a76b81\"\n    },\n    \"m_InputSlot\": {\n        \"m_SlotId\": 0,\n        \"m_NodeGUIDSerialized\": \"7ae44c5b-6003-4823-a2a7-3308bbc2afd8\"\n    }\n}"
        },
        {
            "typeInfo": {
                "fullName": "UnityEditor.Graphing.Edge"
            },
            "JSONnodeData": "{\n    \"m_OutputSlot\": {\n        \"m_SlotId\": 4,\n        \"m_NodeGUIDSerialized\": \"7ae44c5b-6003-4823-a2a7-3308bbc2afd8\"\n    },\n    \"m_InputSlot\": {\n        \"m_SlotId\": 0,\n        \"m_NodeGUIDSerialized\": \"1eb6f74d-12fc-4ace-8ac2-d3d50430f4db\"\n    }\n}"
        },
        {
            "typeInfo": {
                "fullName": "UnityEditor.Graphing.Edge"
            },
            "JSONnodeData": "{\n    \"m_OutputSlot\": {\n        \"m_SlotId\": 3,\n        \"m_NodeGUIDSerialized\": \"aa9419e5-e30b-4ffe-b73a-b8653c582312\"\n    },\n    \"m_InputSlot\": {\n        \"m_SlotId\": 1,\n        \"m_NodeGUIDSerialized\": \"1eb6f74d-12fc-4ace-8ac2-d3d50430f4db\"\n    }\n}"
        },
        {
            "typeInfo": {
                "fullName": "UnityEditor.Graphing.Edge"
            },
            "JSONnodeData": "{\n    \"m_OutputSlot\": {\n        \"m_SlotId\": 2,\n        \"m_NodeGUIDSerialized\": \"1eb6f74d-12fc-4ace-8ac2-d3d50430f4db\"\n    },\n    \"m_InputSlot\": {\n        \"m_SlotId\": 2,\n        \"m_NodeGUIDSerialized\": \"d7562662-34c4-4db2-875a-9c9cba5f5e0a\"\n    }\n}"
        },
        {
            "typeInfo": {
                "fullName": "UnityEditor.Graphing.Edge"
            },
            "JSONnodeData": "{\n    \"m_OutputSlot\": {\n        \"m_SlotId\": 4,\n        \"m_NodeGUIDSerialized\": \"7ae44c5b-6003-4823-a2a7-3308bbc2afd8\"\n    },\n    \"m_InputSlot\": {\n        \"m_SlotId\": 7,\n        \"m_NodeGUIDSerialized\": \"3c764673-d288-449c-8f0c-84c7f99edfd8\"\n    }\n}"
        }
    ],
    "m_PreviewData": {
        "serializedMesh": {
            "m_SerializedMesh": "{\"mesh\":{\"fileID\":10210,\"guid\":\"0000000000000000e000000000000000\",\"type\":0}}",
            "m_Guid": ""
        }
    },
    "m_Path": "Shader Graphs",
    "m_ConcretePrecision": 0,
    "m_ActiveOutputNodeGuidSerialized": "3c764673-d288-449c-8f0c-84c7f99edfd8"
}