%YAML 1.1
%TAG !u! tag:unity3d.com,2011:
--- !u!114 &11400000
MonoBehaviour:
  m_ObjectHideFlags: 0
  m_CorrespondingSourceObject: {fileID: 0}
  m_PrefabInstance: {fileID: 0}
  m_PrefabAsset: {fileID: 0}
  m_GameObject: {fileID: 0}
  m_Enabled: 1
  m_EditorHideFlags: 0
  m_Script: {fileID: 11500000, guid: c2f1789f053bdba4eac79ee5a5469594, type: 3}
  m_Name: CannonSettings
  m_EditorClassIdentifier: 
  maxShellsInClip: 10
  timeSpanToLoadShellFromClipToBarrel: 1
  timeSpanToReloadClip: 2
  rocketPrefab: {fileID: 7898964032163389589, guid: f52aa9717a0e75b4eb6ea0045724013f,
    type: 3}
