%YAML 1.1
%TAG !u! tag:unity3d.com,2011:
--- !u!1 &4968782624775630808
GameObject:
  m_ObjectHideFlags: 0
  m_CorrespondingSourceObject: {fileID: 0}
  m_PrefabInstance: {fileID: 0}
  m_PrefabAsset: {fileID: 0}
  serializedVersion: 6
  m_Component:
  - component: {fileID: 8961620171246206660}
  - component: {fileID: 7241258344046035141}
  - component: {fileID: 3713159871407320803}
  m_Layer: 8
  m_Name: SharkWeapon
  m_TagString: Untagged
  m_Icon: {fileID: 0}
  m_NavMeshLayer: 0
  m_StaticEditorFlags: 0
  m_IsActive: 1
--- !u!4 &8961620171246206660
Transform:
  m_ObjectHideFlags: 0
  m_CorrespondingSourceObject: {fileID: 0}
  m_PrefabInstance: {fileID: 0}
  m_PrefabAsset: {fileID: 0}
  m_GameObject: {fileID: 4968782624775630808}
  m_LocalRotation: {x: 0, y: 0, z: 0, w: 1}
  m_LocalPosition: {x: 0, y: 0, z: 0}
  m_LocalScale: {x: 1, y: 1, z: 1}
  m_Children: []
  m_Father: {fileID: 0}
  m_RootOrder: 0
  m_LocalEulerAnglesHint: {x: 0, y: 0, z: 0}
--- !u!114 &7241258344046035141
MonoBehaviour:
  m_ObjectHideFlags: 0
  m_CorrespondingSourceObject: {fileID: 0}
  m_PrefabInstance: {fileID: 0}
  m_PrefabAsset: {fileID: 0}
  m_GameObject: {fileID: 4968782624775630808}
  m_Enabled: 1
  m_EditorHideFlags: 0
  m_Script: {fileID: 11500000, guid: e4219fcac9f8738428669625a4a81481, type: 3}
  m_Name: 
  m_EditorClassIdentifier: 
  _damageSource: {fileID: 3713159871407320803}
  _damageAmount: 20
  _damageRadius: 1
  _effectPrefab: {fileID: 4958512772895874211, guid: a6403922fec9cd24a891470bbab608dd,
    type: 3}
--- !u!114 &3713159871407320803
MonoBehaviour:
  m_ObjectHideFlags: 0
  m_CorrespondingSourceObject: {fileID: 0}
  m_PrefabInstance: {fileID: 0}
  m_PrefabAsset: {fileID: 0}
  m_GameObject: {fileID: 4968782624775630808}
  m_Enabled: 1
  m_EditorHideFlags: 0
  m_Script: {fileID: 11500000, guid: 69f6711102eebb4459e58da1c8e3fbee, type: 3}
  m_Name: 
  m_EditorClassIdentifier: 
