%YAML 1.1
%TAG !u! tag:unity3d.com,2011:
--- !u!1045 &1
EditorBuildSettings:
  m_ObjectHideFlags: 0
  serializedVersion: 2
  m_Scenes:
  - enabled: 1
    path: Assets/Menu/MainMenu.unity
    guid: da19381377422ec42b97795b9952d0d8
  - enabled: 1
    path: Assets/Gameplay/Scenes/GameScene.unity
    guid: 97e7388c34400884c8ba75e521b7ba56
  m_configObjects: {}
