%YAML 1.1
%TAG !u! tag:unity3d.com,2011:
--- !u!74 &7400000
AnimationClip:
  m_ObjectHideFlags: 0
  m_CorrespondingSourceObject: {fileID: 0}
  m_PrefabInstance: {fileID: 0}
  m_PrefabAsset: {fileID: 0}
  m_Name: Explosion
  serializedVersion: 6
  m_Legacy: 0
  m_Compressed: 0
  m_UseHighQualityCurve: 1
  m_RotationCurves: []
  m_CompressedRotationCurves: []
  m_EulerCurves: []
  m_PositionCurves: []
  m_ScaleCurves: []
  m_FloatCurves: []
  m_PPtrCurves:
  - curve:
    - time: 0
      value: {fileID: 5056632362915681825, guid: 085e85596c28dee46b38747735587fb4,
        type: 3}
    - time: 0.016666668
      value: {fileID: -6673973777471064390, guid: 085e85596c28dee46b38747735587fb4,
        type: 3}
    - time: 0.05
      value: {fileID: -8449821423817703365, guid: 085e85596c28dee46b38747735587fb4,
        type: 3}
    - time: 0.06666667
      value: {fileID: -5317630614089735961, guid: 085e85596c28dee46b38747735587fb4,
        type: 3}
    - time: 0.1
      value: {fileID: -1311935447905904987, guid: 085e85596c28dee46b38747735587fb4,
        type: 3}
    - time: 0.11666667
      value: {fileID: 867550563537955917, guid: 085e85596c28dee46b38747735587fb4,
        type: 3}
    - time: 0.15
      value: {fileID: 3021492006674002862, guid: 085e85596c28dee46b38747735587fb4,
        type: 3}
    - time: 0.16666667
      value: {fileID: -2168451637150714788, guid: 085e85596c28dee46b38747735587fb4,
        type: 3}
    - time: 0.18333334
      value: {fileID: -3384974973279693334, guid: 085e85596c28dee46b38747735587fb4,
        type: 3}
    - time: 0.21666667
      value: {fileID: 3712025856177222032, guid: 085e85596c28dee46b38747735587fb4,
        type: 3}
    - time: 0.23333333
      value: {fileID: 1371550428840249110, guid: 085e85596c28dee46b38747735587fb4,
        type: 3}
    - time: 0.26666668
      value: {fileID: 6251245787628860396, guid: 085e85596c28dee46b38747735587fb4,
        type: 3}
    - time: 0.28333333
      value: {fileID: -1326728311425164778, guid: 085e85596c28dee46b38747735587fb4,
        type: 3}
    - time: 0.31666666
      value: {fileID: -1283192817651498894, guid: 085e85596c28dee46b38747735587fb4,
        type: 3}
    - time: 0.33333334
      value: {fileID: -5050693025054550517, guid: 085e85596c28dee46b38747735587fb4,
        type: 3}
    attribute: m_Sprite
    path: 
    classID: 212
    script: {fileID: 0}
  m_SampleRate: 60
  m_WrapMode: 0
  m_Bounds:
    m_Center: {x: 0, y: 0, z: 0}
    m_Extent: {x: 0, y: 0, z: 0}
  m_ClipBindingConstant:
    genericBindings:
    - serializedVersion: 2
      path: 0
      attribute: 0
      script: {fileID: 0}
      typeID: 212
      customType: 23
      isPPtrCurve: 1
    pptrCurveMapping:
    - {fileID: 5056632362915681825, guid: 085e85596c28dee46b38747735587fb4, type: 3}
    - {fileID: -6673973777471064390, guid: 085e85596c28dee46b38747735587fb4, type: 3}
    - {fileID: -8449821423817703365, guid: 085e85596c28dee46b38747735587fb4, type: 3}
    - {fileID: -5317630614089735961, guid: 085e85596c28dee46b38747735587fb4, type: 3}
    - {fileID: -1311935447905904987, guid: 085e85596c28dee46b38747735587fb4, type: 3}
    - {fileID: 867550563537955917, guid: 085e85596c28dee46b38747735587fb4, type: 3}
    - {fileID: 3021492006674002862, guid: 085e85596c28dee46b38747735587fb4, type: 3}
    - {fileID: -2168451637150714788, guid: 085e85596c28dee46b38747735587fb4, type: 3}
    - {fileID: -3384974973279693334, guid: 085e85596c28dee46b38747735587fb4, type: 3}
    - {fileID: 3712025856177222032, guid: 085e85596c28dee46b38747735587fb4, type: 3}
    - {fileID: 1371550428840249110, guid: 085e85596c28dee46b38747735587fb4, type: 3}
    - {fileID: 6251245787628860396, guid: 085e85596c28dee46b38747735587fb4, type: 3}
    - {fileID: -1326728311425164778, guid: 085e85596c28dee46b38747735587fb4, type: 3}
    - {fileID: -1283192817651498894, guid: 085e85596c28dee46b38747735587fb4, type: 3}
    - {fileID: -5050693025054550517, guid: 085e85596c28dee46b38747735587fb4, type: 3}
  m_AnimationClipSettings:
    serializedVersion: 2
    m_AdditiveReferencePoseClip: {fileID: 0}
    m_AdditiveReferencePoseTime: 0
    m_StartTime: 0
    m_StopTime: 0.35000002
    m_OrientationOffsetY: 0
    m_Level: 0
    m_CycleOffset: 0
    m_HasAdditiveReferencePose: 0
    m_LoopTime: 1
    m_LoopBlend: 0
    m_LoopBlendOrientation: 0
    m_LoopBlendPositionY: 0
    m_LoopBlendPositionXZ: 0
    m_KeepOriginalOrientation: 0
    m_KeepOriginalPositionY: 1
    m_KeepOriginalPositionXZ: 0
    m_HeightFromFeet: 0
    m_Mirror: 0
  m_EditorCurves: []
  m_EulerEditorCurves: []
  m_HasGenericRootTransform: 0
  m_HasMotionFloatCurves: 0
  m_Events:
  - time: 0.35
    functionName: OnAnimationEnd
    data: 
    objectReferenceParameter: {fileID: 0}
    floatParameter: 0
    intParameter: 0
    messageOptions: 0
